//Move towards tank-specific textures.
material Tank/Tiger
{
	technique
	{
		pass
		{
			texture_unit
			{
				texture Tank_Tiger.jpg
			}
		}
	}
}

material Tank/Rhino
{
	technique
	{
		pass
		{
			texture_unit
			{
				texture Tank_Rhino.jpg
			}
		}
	}
}

material Tank/Tornado
{
	technique
	{
		pass
		{
			texture_unit
			{
				texture Tank_Tornado.jpg
			}
		}
	}
}

material Tank/Hexo
{
	technique
	{
		pass
		{
			texture_unit
			{
				texture Tank_Hexo.jpg
			}
		}
	}
}

material Tank/Sentry
{
	technique
	{
		pass
		{
			texture_unit
			{
				texture metal5.png
			}
		}
	}
}

material team_color
//Default team_color material
//Should not be used, should be overriden in Tank.py with tank-specific materials
{
	technique
	{
		pass
		{
			diffuse 1.000000 1.000000 0.500000
			specular 1.000000 1.000000 0.500000 12.500000
		}
	}
}

material Tank/Billboard
//Default billboard material
//Should not be used, should be overriden in Tank.py with player-specific materials
{
	technique
	{
		pass
		{
			texture_unit
			{
				texture SpaceForRent.jpg
			}
		}
	}
}

material Tank/Burn
{
	technique
	{
		pass
		{
			ambient 0.0000000 0.000000 0.000000
			diffuse 0.0000000 0.000000 0.000000
			specular 0.000000 0.000000 0.000000 12.500000
			//diffuse 0.3000000 0.300000 0.300000
			//texture_unit
			//{
			//	texture Tank_burning.jpg
			//	wave_xform scroll_x sine -25.0 0.2 0.0 25.0
			//	wave_xform scroll_y sine 25.0 0.2 0.0 -25.0
			//}
		}
	}
}
material Tank/Turret
{
	technique
	{
		pass
		{
			texture_unit
			{
				texture Turret.jpg
			}
		}
	}
}

